1 12.06.2022 18:00 Polska Anglia
2 13.06.2022 14:00 Wlochy Argentyna 
3 13.06.2022 19:00 Niemcy Hiszpania
4 14.06.2022 11:00 Francja Bialorus
5 15.06.2022 17:15 Portugalia Monako
6 16.06.2022 17:30 Brazylia Ukraina
7 17.06.2022 13:45 Turcja Wegry
8 18.06.2022 15:00 Slowacja Czechy